<svg xmlns="http://www.w3.org/2000/svg" viewBox="0 0 49.606 47.786">
  <defs>
    <style>
      .cls-1 {
        fill: none;
        stroke: #000;
      }
    </style>
  </defs>
  <path id="Intersection_1" data-name="Intersection 1" class="cls-1" d="M-2505-1030.1l-10.614,8.087Zm0-6.154-18.69,14.24Zm0-6.153-26.766,20.393Zm0-5.594-34.108,25.987Zm0-6.713-42.918,32.7Zm-49,31.18,49-37.333Zm0-5.594,49-37.333Zm0-6.153,44.261-33.723Zm0-6.153,36.185-27.57Zm0-6.154,28.109-21.416Zm0-5.594,20.766-15.822Zm0-6.154,12.689-9.668Zm0-6.153,4.613-3.515Z" transform="translate(2554.303 1069.398)"/>
</svg>
